-------------------------------------------------------------------------------
Test set: com.cgi.netbanking.Jenkins_Maven_NetBanking.AppTest
-------------------------------------------------------------------------------
Tests run: 1, Failures: 0, Errors: 0, Skipped: 0, Time elapsed: 0.026 sec
